{
  "name": "Restaurant",
  "fields": [
    {
      "fieldName": "nomResto",
      "fieldType": "String"
    },
    {
      "fieldName": "fraisLivraison",
      "fieldType": "String"
    },
    {
      "fieldName": "adresseResto",
      "fieldType": "String"
    },
    {
      "fieldName": "codePResto",
      "fieldType": "String",
      "fieldValidateRules": ["minlength", "maxlength"],
      "fieldValidateRulesMinlength": "5",
      "fieldValidateRulesMaxlength": "5"
    },
    {
      "fieldName": "villeResto",
      "fieldType": "String"
    }
  ],
  "relationships": [
    {
      "relationshipType": "many-to-many",
      "otherEntityName": "plat",
      "otherEntityRelationshipName": "restaurant",
      "relationshipName": "plat",
      "otherEntityField": "nomPlat",
      "ownerSide": false
    }
  ],
  "entityTableName": "restaurant",
  "dto": "mapstruct",
  "pagination": "no",
  "service": "serviceImpl",
  "jpaMetamodelFiltering": true,
  "fluentMethods": true,
  "readOnly": false,
  "embedded": false,
  "applications": ["coopcycle"],
  "changelogDate": "20210411055041"
}
