{
  "name": "SystemePaiement",
  "fields": [
    {
      "fieldName": "numCarte",
      "fieldType": "String",
      "fieldValidateRules": ["minlength", "maxlength"],
      "fieldValidateRulesMinlength": "16",
      "fieldValidateRulesMaxlength": "16"
    },
    {
      "fieldName": "dateExpiration",
      "fieldType": "Instant",
      "fieldValidateRules": ["required"]
    },
    {
      "fieldName": "typeCarte",
      "fieldType": "String",
      "fieldValidateRules": ["maxlength"],
      "fieldValidateRulesMaxlength": "10"
    },
    {
      "fieldName": "montant",
      "fieldType": "String"
    },
    {
      "fieldName": "dateFacture",
      "fieldType": "Instant",
      "fieldValidateRules": ["required"]
    }
  ],
  "relationships": [
    {
      "relationshipType": "one-to-many",
      "otherEntityName": "panier",
      "otherEntityRelationshipName": "estValidePar",
      "relationshipName": "panier"
    }
  ],
  "entityTableName": "systeme_paiement",
  "dto": "mapstruct",
  "pagination": "no",
  "service": "serviceImpl",
  "jpaMetamodelFiltering": true,
  "fluentMethods": true,
  "readOnly": false,
  "embedded": false,
  "applications": ["coopcycle"],
  "changelogDate": "20210411055039"
}
