{
  "name": "Compte",
  "fields": [
    {
      "fieldName": "nom",
      "fieldType": "String",
      "fieldValidateRules": ["required"]
    },
    {
      "fieldName": "prenom",
      "fieldType": "String",
      "fieldValidateRules": ["required"]
    },
    {
      "fieldName": "email",
      "fieldType": "String",
      "fieldValidateRules": ["required", "pattern"],
      "fieldValidateRulesPattern": "^([a-zA-Z0-9_\\-\\.]+)@(|hotmail|yahoo|imag|gmail|etu.univ-grenoble-alpes|univ-grenoble-alpes+)\\.(fr|com)$"
    },
    {
      "fieldName": "categorie",
      "fieldType": "Role",
      "fieldValues": "COURSIER,COMMERCANT,CLIENT"
    },
    {
      "fieldName": "phoneNumber",
      "fieldType": "String",
      "fieldValidateRules": ["minlength", "maxlength"],
      "fieldValidateRulesMinlength": "10",
      "fieldValidateRulesMaxlength": "10"
    },
    {
      "fieldName": "addressCompte",
      "fieldType": "String"
    },
    {
      "fieldName": "codePCompte",
      "fieldType": "String",
      "fieldValidateRules": ["minlength", "maxlength"],
      "fieldValidateRulesMinlength": "5",
      "fieldValidateRulesMaxlength": "5"
    },
    {
      "fieldName": "villeCompte",
      "fieldType": "String"
    }
  ],
  "relationships": [
    {
      "relationshipType": "one-to-many",
      "otherEntityName": "panier",
      "otherEntityRelationshipName": "constituePar",
      "relationshipName": "panier"
    },
    {
      "relationshipType": "one-to-many",
      "otherEntityName": "course",
      "otherEntityRelationshipName": "livrePar",
      "relationshipName": "course"
    },
    {
      "relationshipType": "many-to-one",
      "otherEntityName": "cooperative",
      "otherEntityRelationshipName": "compte",
      "relationshipName": "membreDe",
      "otherEntityField": "nomCoop"
    }
  ],
  "changelogDate": "20210410045634",
  "entityTableName": "compte",
  "dto": "mapstruct",
  "pagination": "no",
  "service": "serviceImpl",
  "jpaMetamodelFiltering": true,
  "fluentMethods": true,
  "readOnly": false,
  "embedded": false,
  "clientRootFolder": "",
  "applications": ["coopcycle"]
}
