{
  "name": "Course",
  "fields": [
    {
      "fieldName": "createdAt",
      "fieldType": "Instant",
      "fieldValidateRules": ["required"]
    },
    {
      "fieldName": "etat",
      "fieldType": "EtatCourse",
      "fieldValues": "CREE,TRAITEMENT,ANNULEE,FINALISEE"
    },
    {
      "fieldName": "startTime",
      "fieldType": "Instant",
      "fieldValidateRules": ["required"]
    },
    {
      "fieldName": "endTime",
      "fieldType": "Instant"
    }
  ],
  "relationships": [
    {
      "relationshipType": "one-to-one",
      "otherEntityName": "panier",
      "otherEntityRelationshipName": "course",
      "relationshipName": "montant",
      "otherEntityField": "prixTotal",
      "ownerSide": true
    },
    {
      "relationshipType": "many-to-many",
      "otherEntityName": "plat",
      "otherEntityRelationshipName": "course",
      "relationshipName": "plat",
      "ownerSide": true
    },
    {
      "relationshipType": "many-to-one",
      "otherEntityName": "compte",
      "otherEntityRelationshipName": "course",
      "relationshipName": "livrePar",
      "otherEntityField": "nom"
    }
  ],
  "entityTableName": "course",
  "dto": "mapstruct",
  "pagination": "no",
  "service": "serviceImpl",
  "jpaMetamodelFiltering": true,
  "fluentMethods": true,
  "readOnly": false,
  "embedded": false,
  "applications": ["coopcycle"],
  "changelogDate": "20210411173822"
}
