id;nom;prenom;email;categorie;phone_number;address_compte;code_p_compte;ville_compte
1;IB connecting;protocol azure fuchsia;"TOa@etu1univ-grenoble-alpes.com";CLIENT;Soap Handc;Rivoli drive;overr;Toys Checking
2;incubate;background Enhanced archive;"9CW1@etu0univ-grenoble-alpes.com";COURSIER;bifurcated;index Ouguiya AGP;laven;Lettonie Mouse Franc
3;turn-key Rustic teal;orchestrate virtual Kenya;"EG8q8a@etuJuniv-grenoble-alpes.fr";CLIENT;Intelligen;Stagiaire;SSLXX;b architect transmitter
4;copy internet Loan;Frozen;".@univ-grenoble-alpess.fr";COURSIER;FreshXXXXX;ROI optimize Zadkine;Djibo;generate monetize sticky
5;Peso Card Israël;c payment AI;"Jw-@gmail.com";CLIENT;Business-f;secondary;Table;engineer Cheese approach
6;Mouse management;Wooden;"vA4@etuQuniv-grenoble-alpes.fr";COMMERCANT;b firewall;Specialiste 1080p;Nord-;Gorgeous Aquitaine solid
7;Cotton primary hierarchy;Chair;"hamXqe@imag.com";COURSIER;sky relati;b e-services;archi;Zadkine actuating
8;copy;bypassing e-markets auxiliary;"acM@imag.fr";CLIENT;compressin;Directeur orchestrate;a Acc;Fresh Frozen
9;Generic a mindshare;pink 24/7;"o@univ-grenoble-alpessss.fr";COMMERCANT;Focused RA;a Superviseur;synth;drive auxiliary invoice
10;c SDR Sausages;withdrawal global migration;"P3Fii7@hotmail.com";COMMERCANT;Specialist;Wooden;Consu;Shoes
